{
	"variables": [],
	"info": {
		"name": "Blog-Collection",
		"_postman_id": "b6c31b3f-375b-c23e-6351-1127c66c8504",
		"description": "",
		"schema": "https://schema.getpostman.com/json/collection/v2.0.0/collection.json"
	},
	"item": [
		{
			"name": "Primer registro de usuarios",
			"request": {
				"url": "http://localhost:3000/api/rest/register",
				"method": "POST",
				"header": [
					{
						"key": "Content-Type",
						"value": "application/json",
						"description": ""
					}
				],
				"body": {
					"mode": "raw",
					"raw": "{\r\n\t\"firstName\": \"Nombre 5\",\r\n\t\"lastName\": \"Apellido 5\",\r\n\t\"email\": \"test3@test.com\",\r\n\t\"password\": \"1234\"\r\n}"
				},
				"description": "Primer registro de usuario"
			},
			"response": []
		},
		{
			"name": "Hacer login en la aplicación",
			"request": {
				"url": "http://localhost:3000/api/rest/login",
				"method": "POST",
				"header": [
					{
						"key": "Content-Type",
						"value": "application/json",
						"description": ""
					}
				],
				"body": {
					"mode": "raw",
					"raw": "{\r\n\t\"email\": \"test4@test.com\",\r\n\t\"password\": \"1234\"\r\n}"
				},
				"description": "Primer registro de usuario"
			},
			"response": []
		},
		{
			"name": "Obetner usuario logado (Obligatorio pasar X-token)",
			"request": {
				"url": "http://localhost:3000/api/rest/users",
				"method": "GET",
				"header": [
					{
						"key": "Content-Type",
						"value": "application/json",
						"description": ""
					},
					{
						"key": "X-token",
						"value": "bdc91da824dd01666f6f08e3943f049df6de2f3a283f3989434919cc2cd2f70a",
						"description": ""
					}
				],
				"body": {},
				"description": "Obtener la lista de las entradas destacadas."
			},
			"response": []
		},
		{
			"name": "Segundo registro de usuario (Obligatorio pasar X-token)",
			"request": {
				"url": "http://localhost:3000/api/rest/users",
				"method": "PUT",
				"header": [
					{
						"key": "Content-Type",
						"value": "application/json",
						"description": ""
					},
					{
						"key": "X-token",
						"value": "bdc91da824dd01666f6f08e3943f049df6de2f3a283f3989434919cc2cd2f70a",
						"description": ""
					}
				],
				"body": {
					"mode": "raw",
					"raw": "{\n\t\"birthdate\": \"\",\n\t\"description\": \"\",\n\t\"subjects\": \"\"\n}"
				},
				"description": "Segundo proceso de registro de usuarios."
			},
			"response": []
		},
		{
			"name": "Obtener entradas más destacadas (Puede pasarse X-token)",
			"request": {
				"url": "http://localhost:3000/api/rest/posts/all",
				"method": "GET",
				"header": [
					{
						"key": "Content-Type",
						"value": "application/json",
						"description": ""
					}
				],
				"body": {},
				"description": "Obtener la lista de las entradas destacadas."
			},
			"response": []
		},
		{
			"name": "Obtener segunda página de entradas más destacadas (Puede pasarse X-token)",
			"request": {
				"url": {
					"raw": "http://localhost:3000/api/rest/posts/all?page=2",
					"protocol": "http",
					"host": [
						"localhost"
					],
					"port": "3000",
					"path": [
						"api",
						"rest",
						"posts",
						"all"
					],
					"query": [
						{
							"key": "page",
							"value": "2",
							"equals": true,
							"description": ""
						}
					],
					"variable": []
				},
				"method": "GET",
				"header": [
					{
						"key": "Content-Type",
						"value": "application/json",
						"description": ""
					}
				],
				"body": {},
				"description": "Obtener segunda página de la lista de las entradas destacadas."
			},
			"response": []
		},
		{
			"name": "Obtener la entrada destacada de UUID bbbbbbbbbb (Puede pasarse X-token)",
			"request": {
				"url": "http://localhost:3000/api/rest/posts/all/bbbbbbbbbb",
				"method": "GET",
				"header": [
					{
						"key": "Content-Type",
						"value": "application/json",
						"description": ""
					},
					{
						"key": "X-token",
						"value": "bdc91da824dd01666f6f08e3943f049df6de2f3a283f3989434919cc2cd2f70a",
						"description": ""
					}
				],
				"body": {},
				"description": "Obtener el post destacado de uuid bbbbbbbbbb"
			},
			"response": []
		},
		{
			"name": "Obtener comentarios de la entrada destacada de UUID bbbbbbbbbb (Puede pasarse X-token)",
			"request": {
				"url": "http://localhost:3000/api/rest/posts/all/bbbbbbbbbb/comments",
				"method": "GET",
				"header": [
					{
						"key": "Content-Type",
						"value": "application/json",
						"description": ""
					}
				],
				"body": {},
				"description": "Obtener comentarios de entrada uuid bbbbbbbbbb"
			},
			"response": []
		},
		{
			"name": "Añadir comentario a la entrada destacada de UUID bbbbbbbbbb (Puede pasarse X-token)",
			"request": {
				"url": "http://localhost:3000/api/rest/posts/all/bbbbbbbbbb/comments",
				"method": "POST",
				"header": [
					{
						"key": "Content-Type",
						"value": "application/json",
						"description": ""
					}
				],
				"body": {
					"mode": "raw",
					"raw": "{\n\t\"content\":\"\",\n\t\"createdDate\":\"\"\n}"
				},
				"description": "Añadir comentario a la entrada destacada de UUID bbbbbbbbbb"
			},
			"response": []
		},
		{
			"name": "Hacer \"like\" en la entrada destacada de UUID bbbbbbbbbb (Obligatorio pasarse X-token)",
			"request": {
				"url": "http://localhost:3000/api/rest/posts/all/bbbbbbbbbb/like",
				"method": "POST",
				"header": [
					{
						"key": "Content-Type",
						"value": "application/json",
						"description": ""
					},
					{
						"key": "X-token",
						"value": "bdc91da824dd01666f6f08e3943f049df6de2f3a283f3989434919cc2cd2f70a",
						"description": ""
					}
				],
				"body": {},
				"description": "Hacer link de la entrada de uuid bbbbbbbbbb"
			},
			"response": []
		},
		{
			"name": "Hacer \"unlike\" en la entrada destacada de UUID bbbbbbbbbb (Obligatorio pasarse X-token)",
			"request": {
				"url": "http://localhost:3000/api/rest/posts/all/bbbbbbbbbb/unlike/LWH4sIk5gn",
				"method": "DELETE",
				"header": [
					{
						"key": "Content-Type",
						"value": "application/json",
						"description": ""
					},
					{
						"key": "X-token",
						"value": "bdc91da824dd01666f6f08e3943f049df6de2f3a283f3989434919cc2cd2f70a",
						"description": ""
					}
				],
				"body": {},
				"description": "Deshacer like de la entrada de uuid bbbbbbbbbb"
			},
			"response": []
		},
		{
			"name": "Obtener las cinco entradas más leídas (Puede pasarse X-token)",
			"request": {
				"url": "http://localhost:3000/api/rest/posts/all/readed",
				"method": "GET",
				"header": [
					{
						"key": "Content-Type",
						"value": "application/json",
						"description": ""
					}
				],
				"body": {},
				"description": "Obtener la lista de las entradas más leidas."
			},
			"response": []
		},
		{
			"name": "Obtener la lista de los posts del usuario logado",
			"request": {
				"url": "http://localhost:3000/api/rest/posts/own",
				"method": "GET",
				"header": [
					{
						"key": "Content-Type",
						"value": "application/json",
						"description": ""
					},
					{
						"key": "X-token",
						"value": "bdc91da824dd01666f6f08e3943f049df6de2f3a283f3989434919cc2cd2f70a",
						"description": ""
					}
				],
				"body": {},
				"description": "Obtener la lista de los posts del usuario logado"
			},
			"response": []
		},
		{
			"name": "Obtener la tercera página de los posts del usuario logado",
			"request": {
				"url": {
					"raw": "http://localhost:3000/api/rest/posts/own?page=3",
					"protocol": "http",
					"host": [
						"localhost"
					],
					"port": "3000",
					"path": [
						"api",
						"rest",
						"posts",
						"own"
					],
					"query": [
						{
							"key": "page",
							"value": "3",
							"equals": true,
							"description": ""
						}
					],
					"variable": []
				},
				"method": "GET",
				"header": [
					{
						"key": "Content-Type",
						"value": "application/json",
						"description": ""
					},
					{
						"key": "X-token",
						"value": "bdc91da824dd01666f6f08e3943f049df6de2f3a283f3989434919cc2cd2f70a",
						"description": ""
					}
				],
				"body": {},
				"description": "Obtener la tercera página de los posts del usuario logado"
			},
			"response": []
		},
		{
			"name": "Obtener la entrada de UUID aaaaaaaaaa de un usuario logado",
			"request": {
				"url": "http://localhost:3000/api/rest/posts/own/aaaaaaaaaa",
				"method": "GET",
				"header": [
					{
						"key": "Content-Type",
						"value": "application/json",
						"description": ""
					},
					{
						"key": "X-token",
						"value": "bdc91da824dd01666f6f08e3943f049df6de2f3a283f3989434919cc2cd2f70a",
						"description": ""
					}
				],
				"body": {},
				"description": "Obtener la entrada de UUID aaaaaaaaaa de un usuario logado"
			},
			"response": []
		},
		{
			"name": "Obtener los comentarios de la entrada de UUID aaaaaaaaaa de un usuario logado",
			"request": {
				"url": "http://localhost:3000/api/rest/posts/own/aaaaaaaaaa/comments",
				"method": "GET",
				"header": [
					{
						"key": "Content-Type",
						"value": "application/json",
						"description": ""
					},
					{
						"key": "X-token",
						"value": "bdc91da824dd01666f6f08e3943f049df6de2f3a283f3989434919cc2cd2f70a",
						"description": ""
					}
				],
				"body": {},
				"description": "Obtener los comentarios de la entrada de UUID aaaaaaaaaa de un usuario logado"
			},
			"response": []
		},
		{
			"name": "Añadir comentario a la entrada de UUID aaaaaaaaaa de un usuario logado",
			"request": {
				"url": "http://localhost:3000/api/rest/posts/own/aaaaaaaaaa/comments",
				"method": "POST",
				"header": [
					{
						"key": "Content-Type",
						"value": "application/json",
						"description": ""
					},
					{
						"key": "X-token",
						"value": "bdc91da824dd01666f6f08e3943f049df6de2f3a283f3989434919cc2cd2f70a",
						"description": ""
					}
				],
				"body": {
					"mode": "raw",
					"raw": "{\n\t\"content\":\"\",\n\t\"createdDate\":\"\"\n}"
				},
				"description": "Añadir comentario a la entrada de UUID aaaaaaaaaa de un usuario logado"
			},
			"response": []
		},
		{
			"name": "Hacer \"like\" en la entrada destacada de UUID bbbbbbbbbb (Obligatorio pasarse X-token) copy",
			"request": {
				"url": "http://localhost:3000/api/rest/posts/all/bbbbbbbbbb/like",
				"method": "POST",
				"header": [
					{
						"key": "Content-Type",
						"value": "application/json",
						"description": ""
					},
					{
						"key": "X-token",
						"value": "bdc91da824dd01666f6f08e3943f049df6de2f3a283f3989434919cc2cd2f70a",
						"description": ""
					}
				],
				"body": {},
				"description": "Hacer link de la entrada de uuid bbbbbbbbbb"
			},
			"response": []
		},
		{
			"name": "Hacer \"unlike\" en la entrada destacada de UUID bbbbbbbbbb (Obligatorio pasarse X-token) copy",
			"request": {
				"url": "http://localhost:3000/api/rest/posts/all/bbbbbbbbbb/unlike/LWH4sIk5gn",
				"method": "DELETE",
				"header": [
					{
						"key": "Content-Type",
						"value": "application/json",
						"description": ""
					},
					{
						"key": "X-token",
						"value": "bdc91da824dd01666f6f08e3943f049df6de2f3a283f3989434919cc2cd2f70a",
						"description": ""
					}
				],
				"body": {},
				"description": "Deshacer like de la entrada de uuid bbbbbbbbbb"
			},
			"response": []
		},
		{
			"name": "Creación de post (Obligatorio pasarse X-token)",
			"request": {
				"url": "http://localhost:3000/api/rest/posts/own",
				"method": "POST",
				"header": [
					{
						"key": "Content-Type",
						"value": "application/json",
						"description": ""
					},
					{
						"key": "X-token",
						"value": "",
						"description": ""
					}
				],
				"body": {
					"mode": "raw",
					"raw": "{\n\t\"title\":\"\",\n\t\"content\":\"\",\n\t\"enabled\":\"\",\n\t\"createdDate\":\"\",\n\t\"publishedDate\":\"\",\n\t\"tags\":[\"\", \"\", \"\"]\n}"
				},
				"description": "Creación de un post"
			},
			"response": []
		},
		{
			"name": "Modificación de un post especifico (Obligatorio pasarse X-token)",
			"request": {
				"url": "http://localhost:3000/api/rest/posts/own/bbbbbbbbbb",
				"method": "POST",
				"header": [
					{
						"key": "Content-Type",
						"value": "application/json",
						"description": ""
					},
					{
						"key": "X-token",
						"value": "",
						"description": ""
					}
				],
				"body": {
					"mode": "raw",
					"raw": "{\n\t\"title\":\"\",\n\t\"content\":\"\",\n\t\"enabled\":\"\",\n\t\"createdDate\":\"\",\n\t\"publishedDate\":\"\",\n\t\"tags\":[\"\", \"\", \"\"]\n}"
				},
				"description": "Creación de un post"
			},
			"response": []
		},
		{
			"name": "Eliminar un post especifico (Obligatorio pasarse X-token)",
			"request": {
				"url": "http://localhost:3000/api/rest/posts/own/bbbbbbbbbb",
				"method": "DELETE",
				"header": [
					{
						"key": "Content-Type",
						"value": "application/json",
						"description": ""
					},
					{
						"key": "X-token",
						"value": "",
						"description": ""
					}
				],
				"body": {
					"mode": "raw",
					"raw": ""
				},
				"description": "Eliminar un post especifico"
			},
			"response": []
		},
		{
			"name": "Publicar un post (Obligatorio pasarse X-token)",
			"request": {
				"url": "http://localhost:3000/api/rest/posts/own/aaaaaaaaa1/publish",
				"method": "POST",
				"header": [
					{
						"key": "Content-Type",
						"value": "application/json",
						"description": ""
					},
					{
						"key": "X-token",
						"value": "ad3126f23001bc07c2fca2a77bd90e4169a49332a532ff9a201c0b3dd7599ce5",
						"description": ""
					}
				],
				"body": {
					"mode": "raw",
					"raw": "{\n\t\"type\": \"public\",\n\t\"publishedDate\": \"2017-09-20 12:13:00\",\n\t\"users\":[]\n}"
				},
				"description": "Publicar un post\n\nEjemplo de publicación de un post público.\n{\n\t\"type\": \"public\",\n\t\"publishedDate\": \"2017-09-20 12:13:00\",\n\t\"users\":[]\n}\n\nEjemplo de publicación de un post para un conjunto de usuarios restringuido.\n\n{\n\t\"type\": \"private\",\n\t\"publishedDate\": \"2017-09-20 12:13:00\",\n\t\"users\":[\n\t\t\"uuid-user1\",\n\t\t\"uuid-user2\"\n\t]\n}"
			},
			"response": []
		},
		{
			"name": "Obtener lectores para compartir posts con ellos (Obligatorio pasarse X-token)",
			"request": {
				"url": "http://localhost:3000/api/rest/readers",
				"method": "GET",
				"header": [
					{
						"key": "Content-Type",
						"value": "application/json",
						"description": ""
					},
					{
						"key": "X-token",
						"value": "ad3126f23001bc07c2fca2a77bd90e4169a49332a532ff9a201c0b3dd7599ce5",
						"description": ""
					}
				],
				"body": {
					"mode": "raw",
					"raw": ""
				},
				"description": "Obtener los lectores registrados en la base de datos. No devuelve al usuario logado."
			},
			"response": []
		},
		{
			"name": "Obtener usuarios por el usuario administrador (Obligatorio pasarse X-token)",
			"request": {
				"url": "http://localhost:3000/api/rest/admin/users",
				"method": "GET",
				"header": [
					{
						"key": "Content-Type",
						"value": "application/json",
						"description": ""
					},
					{
						"key": "X-token",
						"value": "a117f8025c02220e987490c3f369b4c07264456642ed5987e629b33fca6c2ded",
						"description": ""
					}
				],
				"body": {
					"mode": "raw",
					"raw": ""
				},
				"description": "Obtener usuarios por el usuario administrador."
			},
			"response": []
		},
		{
			"name": "Crear un usuario por el usuario administrador (Obligatorio pasarse X-token)",
			"request": {
				"url": "http://localhost:3000/api/rest/admin/users",
				"method": "POST",
				"header": [
					{
						"key": "Content-Type",
						"value": "application/json",
						"description": ""
					},
					{
						"key": "X-token",
						"value": "a117f8025c02220e987490c3f369b4c07264456642ed5987e629b33fca6c2ded",
						"description": ""
					}
				],
				"body": {
					"mode": "raw",
					"raw": "{\n    \"firstName\": \"Nombre 1\",\n    \"lastName\": \"Apellido 1\",\n    \"email\": \"test@test.com\",\n    \"password\": \"1234\"\n}"
				},
				"description": "Crear un usuario, exclusivamente por el usuario administrador."
			},
			"response": []
		},
		{
			"name": "Actualizar un usuario especifico por el usuario administrador (Obligatorio pasarse X-token) copy",
			"request": {
				"url": "http://localhost:3000/api/rest/admin/users/HmTQxoWR1K",
				"method": "PUT",
				"header": [
					{
						"key": "Content-Type",
						"value": "application/json",
						"description": ""
					},
					{
						"key": "X-token",
						"value": "a117f8025c02220e987490c3f369b4c07264456642ed5987e629b33fca6c2ded",
						"description": ""
					}
				],
				"body": {
					"mode": "raw",
					"raw": "{\n    \"firstName\": \"Nombre 3 - disabled\",\n    \"lastName\": \"Apellido 3 - disabled\",\n    \"email\": \"test3@test.com\",\n    \"enabled\":0,\n    \"description\": \"sdsd\",\n    \"subjects\": \"subject 2\"\n}"
				},
				"description": "Actualizar un usuario especifico por el usuario administrador."
			},
			"response": []
		}
	]
}